{
  "ua": "",
  "homeUrl": "http://1090ys8.com",
  "dcVipFlag": "true",
  "pCfgJs": "http://1090ys8.com/static/js/playerconfig.js",
  "pCfgJsR": "[\\W|\\S|.]*?MacPlayerConfig.player_list[\\W|\\S|.]*?=([\\W|\\S|.]*?),MacPlayerConfig.downer_list",
  "dcShow2Vip": {},
  "dcPlayUrl": "true",
  "cateNode": "//ul[@class='type-slide clearfix']/li/a[contains(@href, 'whole')]",
  "cateName": "/text()",
  "cateId": "/@href",
  "cateIdR": "/whole/(\\d+).html",
  "cateManual":{},
  "homeVodNode": "//div[@class='stui-vodlist__box']/a",
  "homeVodName": "/@title",
  "homeVodId": "/@href",
  "homeVodIdR": "/show/(\\w+).html",
  "homeVodImg": "/@data-original",
  "homeVodImgR": "\\S+(http\\S+)",
  "homeVodMark": "/span[contains(@class,'pic-text')]/text()",
  "cateUrl": "http://1090ys8.com/whole/{cateId}/page/{catePg}.html",
  "cateVodNode": "//div[@class='stui-vodlist__box']/a[contains(@class,'stui-vodlist__thumb')]",
  "cateVodName": "/@title",
  "cateVodId": "/@href",
  "cateVodIdR": "/show/(\\w+).html",
  "cateVodImg": "/@data-original",
  "cateVodImgR": "\\S+(http\\S+)",
  "cateVodMark": "/span[contains(@class,'pic-text')]/text()",
  "dtUrl": "http://1090ys8.com/show/{vid}.html",
  "dtNode": "//div[contains(@class,'stui-content col-pd clearfix')]",
  "dtName": "//h1/text()",
  "dtNameR": "",
  "dtImg": "/div[@class='stui-content__thumb']/a[contains(@class,'stui-vodlist__thumb')]/img/@data-original",
  "dtImgR": "\\S+(http\\S+)",
  "dtCate": "//span[contains(@class,'text-muted') and contains(text(),'类型')]/parent::*/text()[2]",
  "dtCateR": "",
  "dtArea": "//span[contains(@class,'text-muted') and contains(text(),'地区')]/parent::*/text()[3]",
  "dtAreaR": "",
  "dtYear": "//span[contains(@class,'text-muted') and contains(text(),'最后更新')]/parent::*/text()",
  "dtYearR": "",
  "dtActor": "//span[contains(@class,'text-muted') and contains(text(),'主演')]/parent::*/text()",
  "dtActorR": "",
  "dtDirector": "//span[contains(@class,'text-muted') and contains(text(),'导演')]/parent::*/text()",
  "dtDirectorR": "",
  "dtMark": "/div[@class='stui-content__thumb']/a[contains(@class,'stui-vodlist__thumb')]/span[contains(@class,'pic-text')]",
  "dtMarkR": "",
  "dtDesc": "//span[contains(@class,'detail-content')]/text()",
  "dtDescR": "",
  "dtFromNode": "//div[@class='stui-pannel-box b playlist mb']/div[@class='stui-pannel_hd']/div/h3",
  "dtFromName": "/text()",
  "dtFromNameR": "",
  "dtUrlNode": "//div[@class='stui-pannel-box b playlist mb']/div/ul[contains(@class,'stui-content__playlist')]",
  "dtUrlSubNode": "/li/a",
  "dtUrlId": "@href",
  "dtUrlIdR": "/play/(\\S+).html",
  "dtUrlName": "/text()",
  "dtUrlNameR": "",
  "playUrl": "http://1090ys8.com/play/{playUrl}.html",
  "playUa": "",
  "searchUrl": "http://1090ys8.com/ajax/suggest?mid=1&wd={wd}",
  "scVodNode": "json:list",
  "scVodName": "name",
  "scVodId": "id",
  "scVodIdR": "",
  "scVodImg": "pic",
  "scVodMark": ""
}
