{
	"ua": "",
	"homeUrl": "https://www.17kanju.cc/",
    "pCfgJs": "https://www.17kanju.cc/static/js/playerconfig.js",
    "pCfgJsR": "[\\W|\\S|.]*?MacPlayerConfig.player_list[\\W|\\S|.]*?=([\\W|\\S|.]*?),MacPlayerConfig.downer_list",
    "dcShow2Vip": {},
    "dcVipFlag": "true",    
    "dcPlayUrl": "true",
	"cateNode": "",
	"cateName": "",
	"cateId": "",
	"cateIdR": "",
	"cateManual": { "看电影": "1", "电视剧": "2", "综艺": "3"  ,"韩剧": "20" , "美剧": "21"  },
	"homeVodNode": "//div[@class='fed-part-case']/div[2]/ul[@class='fed-list-info fed-part-rows']/li/a[1]",
	"homeVodName": "/../a[2]/text()",
    "homeVodNameR": "",
	"homeVodId": "/@href",
	"homeVodIdR": "/vod/(\\w+).html",
	"homeVodImg": "/@data-original",
    "homeVodImgR": "",
	"homeVodMark": "/span[contains(@class,'fed-list-remarks')]/text()",
    "cateUrl": "https://www.17kanju.cc/type/{cateId}-{catePg}.html",
	"cateVodNode": "//div[@class='fed-part-case']/div[3]/ul[@class='fed-list-info fed-part-rows']/li/a[1]",
	"cateVodName": "/../a[2]/text()",
	"cateVodId": "/@href",
	"cateVodIdR": "/vod/(\\w+).html",
	"cateVodImg": "/@data-original",
	"cateVodImgR": "",
	"cateVodMark": "/span[contains(@class,'fed-list-remarks')]/text()",
    "dtUrl": "https://www.17kanju.cc/vod/{vid}.html",
	"dtNode": "//body",
	"dtName": "//dd/h1/a/text()",
	"dtNameR": "",
	"dtImg": "//dt/a/@data-original",
	"dtImgR": "",
    "dtCate": "//span[contains(text(), '分类')]/following-sibling::*/text()",
    "dtYear": "//span[contains(text(), '年份')]/following-sibling::*/text()",
    "dtArea": "//span[contains(text(), '地区')]/following-sibling::*/text()",
    "dtActor": "//span[contains(text(), '主演')]/following-sibling::*/text()",
    "dtDirector": "//span[contains(text(), '导演')]/following-sibling::*/text()",
	"dtDesc": "//div[@class='fed-part-layout fed-back-whits']/p[10]/text()",
	"dtDescR": "",
	"dtFromNode": "//div[@class='fed-tabs-item fed-drop-info fed-visible']/div/ul[@class='fed-part-rows']",
	"dtFromName": "/li/a/text()",
	"dtFromNameR": "",
	"dtUrlNode": "//div[@class='fed-tabs-item fed-drop-info fed-visible']/div/div/ul[2]",
	"dtUrlSubNode": "/li/a",
	"dtUrlId": "@href",
	"dtUrlIdR": "/play/(\\S+).html",
	"dtUrlName": "/text()",
	"dtUrlNameR": "",
	"playUrl": "https://www.17kanju.cc/play/{playUrl}.html",
	"playUa": "",
	"searchUrl": "https://www.17kanju.cc/index.php/ajax/suggest?mid=1&wd={wd}&limit=10",
	"scVodNode": "json:list",
	"scVodName": "name",
	"scVodId": "id",
	"scVodIdR": "",
	"scVodImg": "pic",
	"scVodMark": ""
}
